…
Finalmente, se hace una comparación entre las variables `pieces` y
`price` por `year`.

``` r
lego_dataframe_limpio %>%
  filter(theme %in% top10_themes) %>%
  group_by(year, theme) %>%
  summarize(media_price = mean(price), media_pieces = mean(pieces))
```

    ## `summarise()` has grouped output by 'year'. You can override using the
    ## `.groups` argument.

    ## # A tibble: 30 × 4
    ## # Groups:   year [3]
    ##     year theme          media_price media_pieces
    ##    <int> <chr>                <dbl>        <dbl>
    ##  1  2018 BrickHeadz            15.0        208. 
    ##  2  2018 City                  47.0        323. 
    ##  3  2018 Creator 3-in-1        31.9        340. 
    ##  4  2018 DUPLO®                28.6         36.8
    ##  5  2018 Disney                32.5        206. 
    ##  6  2018 Friends               31.8        323. 
    ##  7  2018 Marvel                32.7        342. 
    ##  8  2018 NINJAGO®              43.5        519. 
    ##  9  2018 Star Wars             50.9        428. 
    ## 10  2018 Technic              111.        1179. 
    ## # … with 20 more rows
…
